{
 "data": [
  {
   "arbitraryFields": [
    {
     "180821 300821 FAX": "01375 855666",
     "Ariane Tracking": "UKTBY\/SX\/158010",
     "CNPJ": "46.355.806\/0003-65",
     "FAX": "01375 855666",
     "LTD": "Road",
     "Phone": "01375 488200",
     "Service": "CO-LOAD TRAFFIC ONL",
     "Shipper": "BILL OF LADING INSTRUCTIONS",
     "UKAS": "MANAGEMENT QUALITY",
     "Vessel": "MSC SOFIA CELESTE",
     "address_1": "Notify Party 1 BOLLORE LOGISTICS BRAZIL LTDA CNPJ: 46.355.806\/0003-65 AV. RIO BRANCO 1",
     "address_2": "Consignee BOLLORE LOGISTICS BRAZIL LTDA CNPJ: 46.355.806\/0003-65 AV. RIO BRANCO 1",
     "address_3": "Issuing Office BOLLORE LOGISTICS UK LTD TILBURY LOGISTICS CENTRE THURROCK PARK WAY",
     "address_4": "BOLLORE LOGISTICS BOLLORE LOGISTICS UK Bernard House, 52 - 54 Peregrine",
     "awbID": "86132830",
     "billingAddress": "BOLLORE LOGISTICS BRAZIL LTDA\n CNPJ: 46.355.806\/0003-65\n AV. RIO BRANCO 1",
     "bolAwbID": "158010\/001",
     "bolID": "158010\/001",
     "carrier": "Ref   LON",
     "class": "3",
     "containerSize": "40'",
     "containerSizeType": "40'",
     "containerType": "40'",
     "customerPO": "4503809271",
     "date": "2021-12-08",
     "deliveryAddress": "\nBOLLORE LOGISTICS BRAZIL LTDA\nCNPJ: 46.355.806\/0003-65\nAV. RIO BRANCO 1 - SALA 1505\nRIO DE JANEIRO - RJ\n20090-003 BRAZIL",
     "destination": "TILBURY",
     "faxNumber": "+44 (0) 20 8559 8833",
     "grossWeight": "9.0",
     "hazmat": "No",
     "incoTerms": "CFR",
     "invoiceID": "86132830",
     "numPackages": "2",
     "originAddress": "\nBOLLORE LOGISTICS UK LTD\nTILBURY LOGISTICS CENTRE\nTHURROCK PARK WAY\nTILBURY",
     "ourReferenceID": "158010",
     "piecesCount": "2",
     "purchaseOrderID": "4503809271",
     "shippingLine": "Ref   LON",
     "telephoneNumber": "+44 (0) 20 8559 9911",
     "totalQuantity": "1190.0",
     "totalVolume": "2.88",
     "weight": "1440",
     "yourReferenceID": "86132830"
    },
    {
     "180821 300821 FAX": "01375 855666",
     "Ariane Tracking": "UKTBY\/SX\/158010",
     "CNPJ": "46.355.806\/0003-65",
     "FAX": "01375 855666",
     "LTD": "Road",
     "Phone": "01375 488200",
     "Service": "CO-LOAD TRAFFIC ONL",
     "Shipper": "BILL OF LADING INSTRUCTIONS",
     "UKAS": "MANAGEMENT QUALITY",
     "Vessel": "MSC SOFIA CELESTE",
     "address_1": "Notify Party 1 BOLLORE LOGISTICS BRAZIL LTDA CNPJ: 46.355.806\/0003-65 AV. RIO BRANCO 1",
     "address_2": "Consignee BOLLORE LOGISTICS BRAZIL LTDA CNPJ: 46.355.806\/0003-65 AV. RIO BRANCO 1",
     "address_3": "Issuing Office BOLLORE LOGISTICS UK LTD TILBURY LOGISTICS CENTRE THURROCK PARK WAY",
     "address_4": "BOLLORE LOGISTICS BOLLORE LOGISTICS UK Bernard House, 52 - 54 Peregrine",
     "address_5": "Marks & Numbers Number and Kind of Packages\/Description of Goods Gross Weight (kg) Measurement (m3) BOOKING REF LON\/RIO\/1412863 UCR NUMBER 1GB432381373000-TBYSX158010B01 PLEASE ISSUE 3\/3 FREIGHT",
     "awbID": "86132830",
     "billingAddress": "BOLLORE LOGISTICS BRAZIL LTDA\n CNPJ: 46.355.806\/0003-65\n AV. RIO BRANCO 1",
     "bolAwbID": "158010\/001",
     "bolID": "158010\/001",
     "bookingReferenceID": "LON\/RIO\/1412863",
     "date": "2021-12-08",
     "deliveryAddress": "\nBOLLORE LOGISTICS BRAZIL LTDA\nCNPJ: 46.355.806\/0003-65\nAV. RIO BRANCO 1 - SALA 1505\nRIO DE JANEIRO - RJ\n20090-003 BRAZIL",
     "destination": "TILBURY",
     "email": "cherrie.beattie@bollore.com",
     "faxNumber": "+44 (0) 20 8559 8833",
     "freightTerms": "PREPAID",
     "hazmat": "No",
     "incoTerms": "CFR",
     "invoiceID": "86132830",
     "originAddress": "\nBOLLORE LOGISTICS UK LTD\nTILBURY LOGISTICS CENTRE\nTHURROCK PARK WAY\nTILBURY",
     "ourReferenceID": "158010",
     "telephoneNumber": "+44 (0) 20 8559 9911",
     "yourReferenceID": "86132830"
    }
   ],
   "bookingID": [
    {
     "page": 0,
     "text": ""
    },
    {
     "page": 1,
     "text": "1GB432381373000-TBYSX158010B01"
    }
   ],
   "consignee": [
    {
     "addressDetails": {
      "city": "",
      "country": "Brazil",
      "name": "BOLLORE LOGISTICS BRAZIL LTDA",
      "state": "Rio de Janeiro",
      "streetName": "CNPJ 46355806\/0003 65 AV RIO BRANCO 1 SALA 1505 RJ 20090 003",
      "zipCode": ""
     },
     "contactDetails": {
      "contact": "",
      "email": "",
      "fax": "",
      "phone": ""
     },
     "page": 0,
     "text": "\nBOLLORE LOGISTICS BRAZIL LTDA\nCNPJ: 46.355.806\/0003-65\nAV. RIO BRANCO 1 - SALA 1505\nRIO DE JANEIRO - RJ\n20090-003 BRAZIL"
    },
    {
     "addressDetails": {
      "city": "",
      "country": "Brazil",
      "name": "BOLLORE LOGISTICS BRAZIL LTDA",
      "state": "Rio de Janeiro",
      "streetName": "CNPJ 46355806\/0003 65 AV RIO BRANCO 1 SALA 1505 RJ 20090 003",
      "zipCode": ""
     },
     "contactDetails": {
      "contact": "",
      "email": "",
      "fax": "",
      "phone": ""
     },
     "page": 1,
     "text": "\nBOLLORE LOGISTICS BRAZIL LTDA\nCNPJ: 46.355.806\/0003-65\nAV. RIO BRANCO 1 - SALA 1505\nRIO DE JANEIRO - RJ\n20090-003 BRAZIL"
    }
   ],
   "containerID": [
    {
     "page": 0,
     "text": ""
    },
    {
     "page": 1,
     "text": ""
    }
   ],
   "countryOfDestination": [
    {
     "iso3166Code": {
      "alpha2": "CA",
      "alpha3": "CAN"
     },
     "page": 0,
     "text": "Canada"
    },
    {
     "iso3166Code": {
      "alpha2": "CA",
      "alpha3": "CAN"
     },
     "page": 1,
     "text": "Canada"
    }
   ],
   "countryOfOrigin": [
    {
     "iso3166Code": {
      "alpha2": "",
      "alpha3": ""
     },
     "page": 0,
     "text": ""
    },
    {
     "iso3166Code": {
      "alpha2": "",
      "alpha3": ""
     },
     "page": 1,
     "text": ""
    }
   ],
   "deliveryDate": [
    {
     "page": 0,
     "text": ""
    },
    {
     "page": 1,
     "text": ""
    }
   ],
   "dueDate": [
    {
     "page": 0,
     "text": ""
    },
    {
     "page": 1,
     "text": ""
    }
   ],
   "ecuClientReference": [
    {
     "page": 0,
     "score": 0.42,
     "text": "LON\/RIO\/1412863"
    },
    {
     "page": 1,
     "score": 0.65,
     "text": "LON\/RIO\/1412863"
    }
   ],
   "freightChargesPayableAt": [
    {
     "locode": "",
     "page": 0,
     "text": ""
    },
    {
     "locode": "",
     "page": 1,
     "text": ""
    }
   ],
   "hsCode": [
    {
     "page": 0,
     "text": ""
    },
    {
     "page": 1,
     "text": ""
    }
   ],
   "invoiceDate": [
    {
     "page": 0,
     "score": 0.89,
     "text": "2021-12-08"
    },
    {
     "page": 1,
     "score": 0.83,
     "text": "2021-12-08"
    }
   ],
   "metadata": {
    "dimensions": [
     [
      1200,
      848
     ],
     [
      1200,
      848
     ]
    ],
    "docname": "original.png",
    "info": "Detected Table",
    "numOfPages": 2,
    "text": [
     "Shipper: BILL OF LADING INSTRUCTIONS BOLLORE LOGISTICS UK LTD Bill of Lading \/ Hawb \/ Awb Your Reference TILBURY LOGISTICS CENTRE 158010\/001 86132830 THURROCK PARK WAY TILBURY Document Date Our Reference ESSEX RM18 7HW 12\/08\/2021 TBY SX 158010 Consignee BOLLORE LOGISTICS BRAZIL LTDA CNPJ: 46.355.806\/0003-65 BOLLORE LA AV. RIO BRANCO 1 - SALA 1505 LOGISTICS UKAS DNV MANAGEMENT QUALITY RIO DE JANEIRO - RJ BOLLORE LOGISTICS UK LTD 20090-003 BRAZIL Bernard House, 52 - 54 Peregrine Road Notify Party 1 Hainault, Ilford, Essex IG6 3SZ BOLLORE LOGISTICS BRAZIL LTDA CNPJ: 46.355.806\/0003-65 Tel: +44 (0) 20 8559 9911 FAX: +44 (0) 20 8559 8833 AV. RIO BRANCO 1 - SALA 1505 Reg. Office: 00232744 VAT No: GB 432 3813 73 RIO DE JANEIRO - RJ www.bollore-logistics.com 20090-003 BRAZIL Service Voyage\/Ship Issuing Office CO-LOAD TRAFFIC ONL BOLLORE LOGISTICS UK LTD Vessel Port of Loading TILBURY LOGISTICS CENTRE MSC SOFIA CELESTE LONDON GATEWAY PO THURROCK PARK WAY Port of Discharge Final Destination TILBURY RIO DE JANEIRO ESSEX RM18 7HW Estimated Date of Departure Estimated Date of Arrival Phone: 01375 488200 18\/08\/21 30\/08\/21 FAX: 01375 855666 Terms CFR (Cost and Freight (Named port )) Marks & Numbers Number and Kind of Packages\/Description of Goods Gross Weight (kg) Measurement (m3) IFF ESSENCIAS E 2 PALLETS SAID TO CONTAIN 1620 2.8800 FRAGRANCIAS 8 DRUMS - ETHYL-BUTYRATE LTDA AV. BRASIL NCM 29156019 22351, RIO DE JANEIRO WOODEN PACKING: HEAT TREATED CEP21670-000 BRAZIL 1-2 PO NO. 4503809271 DHL REF. 86132830 Imco Class 3 Flashpoint 26C Un No. 1180 Nett Weight 1440 Container No Seal No. Carrier Ref Pcs Size Type Weight Cube LON\/RIO\/1412863 2. 40 40' General 9'6 1620 2.88 Contd on next page QA\/G\/154-08.01 .. Ariane Tracking All business is undertaken subject to the Company's Standard Trading Conditions (copies available on request) UKTBY\/SX\/158010",
     "Shipper: BILL OF LADING INSTRUCTIONS BOLLORE LOGISTICS UK LTD Bill of Lading \/ Hawb \/ Awb Your Reference TILBURY LOGISTICS CENTRE 158010\/001 86132830 THURROCK PARK WAY TILBURY Document Date Our Reference ESSEX RM18 7HW 12\/08\/2021 TBY SX 158010 Consignee BOLLORE LOGISTICS BRAZIL LTDA CNPJ: 46.355.806\/0003-65 BOLLORE AV. RIO BRANCO 1 - SALA 1505 LOGISTICS UKAS DNV MANAGEMENT QUALITY RIO DE JANEIRO - RJ BOLLORE LOGISTICS UK LTD 20090-003 BRAZIL Bernard House, 52 - 54 Peregrine Road Notify Party 1 Hainault, Ilford, Essex IG6 3SZ BOLLORE LOGISTICS BRAZIL LTDA CNPJ: 46.355.806\/0003-65 Tel: +44 (0) 20 8559 9911 FAX: +44 (0) 20 8559 8833 AV. RIO BRANCO 1 - SALA 1505 Reg. Office: 00232744 VAT No: GB 432 3813 73 RIO DE JANEIRO - RJ www.bollore-logistics.com 20090-003 BRAZIL Service Voyage\/Ship Issuing Office CO-LOAD TRAFFIC ONL BOLLORE LOGISTICS UK LTD Vessel Port of Loading TILBURY LOGISTICS CENTRE MSC SOFIA CELESTE LONDON GATEWAY PO THURROCK PARK WAY Port of Discharge Final Destination TILBURY RIO DE JANEIRO ESSEX RM18 7HW Estimated Date of Departure Estimated Date of Arrival Phone: 01375 488200 18\/08\/21 30\/08\/21 FAX: 01375 855666 Terms CFR (Cost and Freight (Named port )) Marks & Numbers Number and Kind of Packages\/Description of Goods Gross Weight (kg) Measurement (m3) BOOKING REF LON\/RIO\/1412863 UCR NUMBER 1GB432381373000-TBYSX158010B01 PLEASE ISSUE 3\/3 FREIGHT PREPAID BL PLEASE EMAIL DRAFT TO cherrie.beattie@bollore.com QA\/G\/154-08.01 Ariane Tracking All business is undertaken subject to the Company's Standard Trading Conditions (copies available on request) UKTBY\/SX\/158010"
    ]
   },
   "notifyParty": [
    {
     "addressDetails": {
      "city": "",
      "country": "Brazil",
      "name": "BOLLORE LOGISTICS BRAZIL LTDA",
      "state": "Rio de Janeiro",
      "streetName": "1 CNPJ 46355806\/0003 65 AV RIO BRANCO 1 SALA 1505 RJ 20090 003",
      "zipCode": ""
     },
     "contactDetails": {
      "contact": "",
      "email": "",
      "fax": "",
      "phone": ""
     },
     "page": 0,
     "text": " 1\nBOLLORE LOGISTICS BRAZIL LTDA\nCNPJ: 46.355.806\/0003-65\nAV. RIO BRANCO 1 - SALA 1505\nRIO DE JANEIRO - RJ\n20090-003 BRAZIL"
    },
    {
     "addressDetails": {
      "city": "",
      "country": "Brazil",
      "name": "BOLLORE LOGISTICS BRAZIL LTDA",
      "state": "Rio de Janeiro",
      "streetName": "1 CNPJ 46355806\/0003 65 AV RIO BRANCO 1 SALA 1505 RJ 20090 003",
      "zipCode": ""
     },
     "contactDetails": {
      "contact": "",
      "email": "",
      "fax": "",
      "phone": ""
     },
     "page": 1,
     "text": " 1\nBOLLORE LOGISTICS BRAZIL LTDA\nCNPJ: 46.355.806\/0003-65\nAV. RIO BRANCO 1 - SALA 1505\nRIO DE JANEIRO - RJ\n20090-003 BRAZIL"
    }
   ],
   "orderDate": [
    {
     "page": 0,
     "text": ""
    },
    {
     "page": 1,
     "text": ""
    }
   ],
   "placeOfDischarge": [
    {
     "locode": "BRRIO",
     "page": 0,
     "text": "RIO DE JANEIRO"
    },
    {
     "locode": "BRRIO",
     "page": 1,
     "text": "RIO DE JANEIRO"
    }
   ],
   "placeOfLoading": [
    {
     "locode": "BFPUP",
     "page": 0,
     "text": "PO"
    },
    {
     "locode": "BFPUP",
     "page": 1,
     "text": "PO"
    }
   ],
   "placeOfReceipt": [
    {
     "locode": "",
     "page": 0,
     "text": ""
    },
    {
     "locode": "",
     "page": 1,
     "text": ""
    }
   ],
   "portOfDeparture": [
    {
     "locode": "",
     "page": 0,
     "text": ""
    },
    {
     "locode": "",
     "page": 1,
     "text": ""
    }
   ],
   "portOfDestination": [
    {
     "locode": "CATIY",
     "page": 0,
     "text": "TILBURY"
    },
    {
     "locode": "CATIY",
     "page": 1,
     "text": "TILBURY"
    }
   ],
   "purchaseOrderDate": [
    {
     "page": 0,
     "text": ""
    },
    {
     "page": 1,
     "text": ""
    }
   ],
   "referenceID": [
    {
     "page": 0,
     "score": 0.9,
     "text": "86132830"
    },
    {
     "page": 1,
     "score": 0.91,
     "text": "86132830"
    }
   ],
   "sanitizedTables": [
    {
     "cells": [
      {
       "bbox": [
        57,
        518,
        189,
        524
       ],
       "cellPosition": [
        0,
        0
       ],
       "score": 0.68,
       "text": "Marks & Numbers"
      },
      {
       "bbox": [
        189,
        518,
        491,
        524
       ],
       "cellPosition": [
        0,
        1
       ],
       "score": 0.67,
       "text": "Number and Kind of Packages\/Description of Goods"
      },
      {
       "bbox": [
        491,
        518,
        539,
        524
       ],
       "cellPosition": [
        0,
        2
       ],
       "score": 0.7,
       "text": ""
      },
      {
       "bbox": [
        539,
        518,
        722,
        524
       ],
       "cellPosition": [
        0,
        3
       ],
       "score": 0.69,
       "text": "Gross Weight (kg)"
      },
      {
       "bbox": [
        722,
        518,
        808,
        524
       ],
       "cellPosition": [
        0,
        4
       ],
       "score": 0.68,
       "text": "Measurement (m3)"
      },
      {
       "bbox": [
        808,
        518,
        808,
        524
       ],
       "cellPosition": [
        0,
        5
       ],
       "score": 0.68,
       "text": ""
      },
      {
       "bbox": [
        57,
        572,
        189,
        679
       ],
       "cellPosition": [
        1,
        0
       ],
       "score": 0.68,
       "text": "LTDA\nAV. BRASIL\n22351,\nRIO DE JANEIRO\nCEP21670-000\nBRAZIL\n1-2"
      },
      {
       "bbox": [
        189,
        572,
        491,
        679
       ],
       "cellPosition": [
        1,
        1
       ],
       "score": 0.7,
       "text": "NCM 29156019\nWOODEN PACKING: HEAT TREATED"
      },
      {
       "bbox": [
        491,
        572,
        539,
        679
       ],
       "cellPosition": [
        1,
        2
       ],
       "score": 0.68,
       "text": ""
      },
      {
       "bbox": [
        539,
        572,
        722,
        679
       ],
       "cellPosition": [
        1,
        3
       ],
       "score": 0.69,
       "text": ""
      },
      {
       "bbox": [
        722,
        572,
        808,
        679
       ],
       "cellPosition": [
        1,
        4
       ],
       "score": 0.7,
       "text": ""
      },
      {
       "bbox": [
        808,
        572,
        808,
        679
       ],
       "cellPosition": [
        1,
        5
       ],
       "score": 0.68,
       "text": ""
      },
      {
       "bbox": [
        57,
        701,
        189,
        744
       ],
       "cellPosition": [
        2,
        0
       ],
       "score": 0.7,
       "text": "PO NO.\n4503809271\nDHL REF."
      },
      {
       "bbox": [
        189,
        701,
        491,
        744
       ],
       "cellPosition": [
        2,
        1
       ],
       "score": 0.68,
       "text": ""
      },
      {
       "bbox": [
        491,
        701,
        539,
        744
       ],
       "cellPosition": [
        2,
        2
       ],
       "score": 0.67,
       "text": ""
      },
      {
       "bbox": [
        539,
        701,
        722,
        744
       ],
       "cellPosition": [
        2,
        3
       ],
       "score": 0.69,
       "text": ""
      },
      {
       "bbox": [
        722,
        701,
        808,
        744
       ],
       "cellPosition": [
        2,
        4
       ],
       "score": 0.67,
       "text": ""
      },
      {
       "bbox": [
        808,
        701,
        808,
        744
       ],
       "cellPosition": [
        2,
        5
       ],
       "score": 0.69,
       "text": ""
      }
     ],
     "metadata": {
      "bbox": [
       57,
       518,
       808,
       744
      ],
      "isSanitized": false,
      "page": 0,
      "score": 0.68,
      "tableType": "original"
     },
     "summary": [
      [
       "Marks & Numbers",
       "Number and Kind of Packages\/Description of Goods",
       "",
       "Gross Weight (kg)",
       "Measurement (m3)",
       ""
      ],
      [
       "LTDA\nAV. BRASIL\n22351,\nRIO DE JANEIRO\nCEP21670-000\nBRAZIL\n1-2",
       "NCM 29156019\nWOODEN PACKING: HEAT TREATED",
       "",
       "",
       "",
       ""
      ],
      [
       "PO NO.\n4503809271\nDHL REF.",
       "",
       "",
       "",
       "",
       ""
      ]
     ]
    },
    {
     "cells": [

     ],
     "metadata": {
      "bbox": [

      ],
      "page": 0,
      "score": 0.75,
      "tableType": "virtual",
      "title": "itemTable"
     },
     "summary": [
      [
       "marksAndNumbers",
       "itemQuantity",
       "itemQuantityUOM",
       "itemGrossWeight",
       "itemVolume",
       "itemGrossWeightUOM",
       "itemVolumeUOM",
       "itemDescription"
      ],
      [
       "IFF ESSENCIAS E",
       "2",
       "PAT",
       "",
       "2.8800",
       "",
       "M3",
       "SAID TO CONTAIN 1620"
      ],
      [
       "FRAGRANCIAS LTDA AV. BRASIL 22351, RIO DE JANEIRO CEP21670-000 BRAZIL 1-2 PO NO. 4503809271 DHL REF. 86132830",
       "8",
       "",
       "",
       "",
       "",
       "",
       "DRUMS - ETHYL-BUTYRATE"
      ],
      [
       "Container No",
       "1180",
       "",
       "9",
       "",
       "KG",
       "",
       "Nett Weight 1440"
      ]
     ]
    },
    {
     "cells": [
      {
       "bbox": [
        57,
        516,
        189,
        526
       ],
       "cellPosition": [
        0,
        0
       ],
       "score": 0.6,
       "text": "Marks & Numbers"
      },
      {
       "bbox": [
        189,
        516,
        534,
        526
       ],
       "cellPosition": [
        0,
        1
       ],
       "score": 0.6,
       "text": "Number and Kind of Packages\/Description of Goods"
      },
      {
       "bbox": [
        534,
        516,
        722,
        526
       ],
       "cellPosition": [
        0,
        2
       ],
       "score": 0.6,
       "text": "Gross Weight (kg)"
      },
      {
       "bbox": [
        722,
        516,
        808,
        526
       ],
       "cellPosition": [
        0,
        3
       ],
       "score": 0.6,
       "text": "Measurement (m3)"
      },
      {
       "bbox": [
        57,
        800,
        183,
        847
       ],
       "cellPosition": [
        2,
        0
       ],
       "score": 0.78,
       "text": "BOOKING REF"
      },
      {
       "bbox": [
        183,
        800,
        534,
        847
       ],
       "cellPosition": [
        2,
        1
       ],
       "score": 0.78,
       "text": "LON\/RIO\/1412863"
      },
      {
       "bbox": [
        534,
        800,
        722,
        847
       ],
       "cellPosition": [
        2,
        2
       ],
       "score": 0.78,
       "text": ""
      },
      {
       "bbox": [
        722,
        800,
        808,
        847
       ],
       "cellPosition": [
        2,
        3
       ],
       "score": 0.78,
       "text": ""
      },
      {
       "bbox": [
        57,
        847,
        183,
        891
       ],
       "cellPosition": [
        3,
        0
       ],
       "score": 0.78,
       "text": "UCR NUMBER"
      },
      {
       "bbox": [
        183,
        847,
        534,
        891
       ],
       "cellPosition": [
        3,
        1
       ],
       "score": 0.78,
       "text": "1GB432381373000-TBYSX158010B01"
      },
      {
       "bbox": [
        534,
        847,
        722,
        891
       ],
       "cellPosition": [
        3,
        2
       ],
       "score": 0.78,
       "text": ""
      },
      {
       "bbox": [
        722,
        847,
        808,
        891
       ],
       "cellPosition": [
        3,
        3
       ],
       "score": 0.78,
       "text": ""
      },
      {
       "bbox": [
        57,
        891,
        183,
        1091
       ],
       "cellPosition": [
        4,
        0
       ],
       "score": 0.78,
       "text": "PLEASE ISSUE PLEASE EMAIL"
      },
      {
       "bbox": [
        183,
        891,
        534,
        1091
       ],
       "cellPosition": [
        4,
        1
       ],
       "score": 0.78,
       "text": "3\/3 FREIGHT PREPAID BL DRAFT TO cherrie.beattie@bollore.com"
      },
      {
       "bbox": [
        534,
        891,
        722,
        1091
       ],
       "cellPosition": [
        4,
        2
       ],
       "score": 0.78,
       "text": ""
      },
      {
       "bbox": [
        722,
        891,
        808,
        1091
       ],
       "cellPosition": [
        4,
        3
       ],
       "score": 0.78,
       "text": ""
      }
     ],
     "metadata": {
      "bbox": [
       57,
       516,
       808,
       1091
      ],
      "isSanitized": true,
      "page": 1,
      "score": 0.75,
      "tableType": "original"
     },
     "summary": [
      [
       "Marks & Numbers",
       "Number and Kind of Packages\/Description of Goods",
       "Gross Weight (kg)",
       "Measurement (m3)"
      ],
      [
       "BOOKING REF",
       "LON\/RIO\/1412863",
       "",
       ""
      ],
      [
       "UCR NUMBER",
       "1GB432381373000-TBYSX158010B01",
       "",
       ""
      ],
      [
       "PLEASE ISSUE PLEASE EMAIL",
       "3\/3 FREIGHT PREPAID BL DRAFT TO cherrie.beattie@bollore.com",
       "",
       ""
      ]
     ]
    }
   ],
   "sealID": [
    {
     "page": 0,
     "text": ""
    },
    {
     "page": 1,
     "text": ""
    }
   ],
   "shipper": [
    {
     "addressDetails": {
      "city": "",
      "country": "",
      "name": "BOLLORE LOGISTICS UK LTD TILBURY LOGISTICS CENTRE",
      "state": "",
      "streetName": "THURROCK PARK WAY",
      "zipCode": ""
     },
     "contactDetails": {
      "contact": "",
      "email": "",
      "fax": "",
      "phone": ""
     },
     "page": 0,
     "text": "\nBOLLORE LOGISTICS UK LTD\nTILBURY LOGISTICS CENTRE\nTHURROCK PARK WAY\nTILBURY"
    },
    {
     "addressDetails": {
      "city": "",
      "country": "",
      "name": "BOLLORE LOGISTICS UK LTD TILBURY LOGISTICS CENTRE",
      "state": "",
      "streetName": "THURROCK PARK WAY",
      "zipCode": ""
     },
     "contactDetails": {
      "contact": "",
      "email": "",
      "fax": "",
      "phone": ""
     },
     "page": 1,
     "text": "\nBOLLORE LOGISTICS UK LTD\nTILBURY LOGISTICS CENTRE\nTHURROCK PARK WAY\nTILBURY"
    }
   ],
   "vesselName": [
    {
     "page": 0,
     "score": 0.88,
     "text": "MSC SOFIA CELESTE"
    },
    {
     "page": 1,
     "score": 0.91,
     "text": "MSC SOFIA CELESTE"
    }
   ],
   "voyageID": [
    {
     "page": 0,
     "text": ""
    },
    {
     "page": 1,
     "text": ""
    }
   ]
  }
 ],
 "status": true
}